<?xml version="1.0" encoding="UTF-8"?>
<issues format="4" by="lint 24.4.1">

    <issue
        id="DefaultLocale"
        severity="Warning"
        message="Implicitly using the default locale is a common source of bugs: Use `String.format(Locale, ...)` instead"
        category="Correctness"
        priority="6"
        summary="Implied default locale in case conversion"
        explanation="Calling `String#toLowerCase()` or `#toUpperCase()` *without specifying an explicit locale* is a common source of bugs. The reason for that is that those methods will use the current locale on the user&apos;s device, and even though the code appears to work correctly when you are developing the app, it will fail in some locales. For example, in the Turkish locale, the uppercase replacement for `i` is *not* `I`.

If you want the methods to just perform ASCII replacement, for example to convert an enum name, call `String#toUpperCase(Locale.US)` instead. If you really want to use the current locale, call `String#toUpperCase(Locale.getDefault())` instead."
        url="http://developer.android.com/reference/java/util/Locale.html#default_locale"
        urls="http://developer.android.com/reference/java/util/Locale.html#default_locale"
        errorLine1="   return String.format(&quot;%s bits=%d bytes=%d&quot;,"
        errorLine2="                 ~~~~~~">
        <location
            file="/Users/esk/Engineering/Mobilfluence/Products/Mobility/Android/toto/DI-Barcode/src/main/java/toto/di/barcode/AztecWriter.java"
            line="1010"
            column="18"/>
    </issue>

    <issue
        id="UseSparseArrays"
        severity="Warning"
        message="Use `new SparseArray&lt;CharacterSetECI>(...)` instead for better performance"
        category="Performance"
        priority="4"
        summary="HashMap can be replaced with SparseArray"
        explanation="For maps where the keys are of type integer, it&apos;s typically more efficient to use the Android `SparseArray` API. This check identifies scenarios where you might want to consider using `SparseArray` instead of `HashMap` for better performance.

This is *particularly* useful when the value types are primitives like ints, where you can use `SparseIntArray` and avoid auto-boxing the values from `int` to `Integer`.

If you need to construct a `HashMap` because you need to call an API outside of your control which requires a `Map`, you can suppress this warning using for example the `@SuppressLint` annotation."
        errorLine1=" private static final Map&lt;Integer, CharacterSetECI> VALUE_TO_ECI = new HashMap&lt;Integer, CharacterSetECI>();"
        errorLine2="                                                                   ~~~~~~~~~~~~~~~~~~~~~~~~~~~~~~~~~~~~~~~">
        <location
            file="/Users/esk/Engineering/Mobilfluence/Products/Mobility/Android/toto/DI-Barcode/src/main/java/toto/di/barcode/CharacterSetECI.java"
            line="28"
            column="68"/>
    </issue>

    <issue
        id="UseSparseArrays"
        severity="Warning"
        message="Use new `SparseIntArray(...)` instead for better performance"
        category="Performance"
        priority="4"
        summary="HashMap can be replaced with SparseArray"
        explanation="For maps where the keys are of type integer, it&apos;s typically more efficient to use the Android `SparseArray` API. This check identifies scenarios where you might want to consider using `SparseArray` instead of `HashMap` for better performance.

This is *particularly* useful when the value types are primitives like ints, where you can use `SparseIntArray` and avoid auto-boxing the values from `int` to `Integer`.

If you need to construct a `HashMap` because you need to call an API outside of your control which requires a `Map`, you can suppress this warning using for example the `@SuppressLint` annotation."
        errorLine1=" private final Map&lt;Integer, Integer> values = new HashMap&lt;Integer, Integer>();"
        errorLine2="                                              ~~~~~~~~~~~~~~~~~~~~~~~~~~~~~~~">
        <location
            file="/Users/esk/Engineering/Mobilfluence/Products/Mobility/Android/toto/DI-Barcode/src/main/java/toto/di/barcode/PDF417BarcodeValue.java"
            line="12"
            column="47"/>
    </issue>

    <issue
        id="GoogleAppIndexingWarning"
        severity="Warning"
        message="App is not indexable by Google Search; consider adding at least one Activity with an ACTION-VIEW intent-filler. See issue explanation for more details."
        category="Usability"
        priority="5"
        summary="Missing support for Google App Indexing"
        explanation="Adds deep links to get your app into the Google index, to get installs and traffic to your app from Google Search."
        url="https://g.co/AppIndexing/AndroidStudio"
        urls="https://g.co/AppIndexing/AndroidStudio"
        errorLine1="    &lt;application"
        errorLine2="    ^">
        <location
            file="/Users/esk/Engineering/Mobilfluence/Products/Mobility/Android/toto/DI-Barcode/src/main/AndroidManifest.xml"
            line="4"
            column="5"/>
    </issue>

</issues>
